src/Waveforms/Hardware Test/10MhzHardwareTest.vcd
$date
        2022-Apr-20 21:39:08
$end
$version
        Vivado v2021.1 (64-bit)
$end
$timescale
        1ps
$end
$scope module dut $end
$var reg 14 " prog_mem_addra [13:0] $end
$var reg 32 0 prog_mem_douta [31:0] $end
$var reg 1 P mem_wen $end
$var reg 1 Q call_stk_en $end
$var reg 1 R main_mem_en $end
$var reg 1 S fb_en $end
$var reg 1 T prog_mem_en $end
$var reg 16 U addr_in [15:0] $end
$var reg 12 e data_in [11:0] $end
$var reg 8 q led_OBUF [7:0] $end
$var reg 16 y memwb_data [15:0] $end
$var reg 2 +" reg_file_wen [1:0] $end
$var reg 8 -" mem_wb_opcode [7:0] $end
$var reg 1 5" nreset $end
$var reg 1 6" core_clk $end
$var reg 1 7" _TRIGGER $end
$var reg 1 8" _WINDOW $end
$var reg 1 9" _GAP $end
$upscope $end
$enddefinitions $end
#0
$dumpvars
b0 "
b11000000010000111000 0
0P
0Q
0R
0S
0T
b0 U
b0 e
b0 q
b0 y
b0 +"
b0 -"
15"
16"
17"
18"
09"
$end
#5
06"
#10
b1 "
b111000 -"
16"
#15
b110000000000010000111000 0
06"
#20
b11 "
b0 -"
16"
#25
b11111111001010000000000011111000 0
06"
#30
b100 "
b11111000 -"
16"
#35
b1001000000000110011100 0
06"
#40
b101 "
b10011100 -"
16"
#45
b1001000000000010011100 0
06"
#50
b110 "
b11111111 e
16"
#55
b1010000000000011111000 0
06"
#60
b111 "
b0 e
b11111111 y
b1 +"
b11111000 -"
16"
#65
b1001000000100110011100 0
06"
#70
b1000 "
b0 y
b0 +"
b10011100 -"
16"
#75
b1010000001111111111000 0
06"
#80
b1001 "
b11111000 -"
16"
#85
b1010000001111011111000 0
06"
#90
b1010 "
b11111111 e
b1 +"
16"
#95
b11111111001010000000000011111000 0
06"
#100
b1011 "
b0 e
b11111111 y
b0 +"
16"
#105
b1001000000100010011100 0
06"
#110
b1100 "
b0 y
b1 +"
b10011100 -"
16"
#115
b110010000000000001000010 0
06"
#120
b1101 "
b11111111 e
b1000010 -"
16"
#125
b111010000000000001000010 0
06"
#130
b110010 "
b0 e
b11111111 y
b0 -"
16"
#135
b1010000000000011111000 0
06"
#140
b110011 "
1P
1Q
b0 y
b0 +"
b11111000 -"
16"
#145
b1001011000000000010111100 0
06"
#150
b110100 "
0P
0Q
b1111111111111111 U
b10111100 -"
16"
#155
b1000010000000000010111100 0
06"
#160
b110101 "
b0 U
16"
#165
b110111000000011000111000 0
06"
#170
b110110 "
b111100000001 e
b1 +"
b111000 -"
16"
#175
b111000001000000000001000010 0
06"
#180
b110111 "
b111100000000 e
b1111111100000001 y
b0 -"
16"
#185
b1001011000001111010111100 0
06"
#190
b111000 "
b0 e
b1111111100000000 y
b0 +"
b10111100 -"
16"
#195
b1001111100101010011100 0
06"
#200
b111001 "
b1111111111111111 U
b0 y
b10011100 -"
16"
#205
b1000011 0
06"
#210
b111010 "
b0 U
b1 e
b1000011 -"
16"
#215
b1001010000000000011111000 0
06"
#220
b0 e
b1 y
b1 +"
b0 -"
16"
#225
b1 q
06"
#230
1Q
b1111111111111111 U
b0 y
b0 +"
16"
#235
06"
#240
0Q
16"
#245
06"
#250
b1101 "
16"
#255
b111010000000000001000010 0
06"
#260
b1110 "
b1000010 -"
16"
#265
b1000001000000000001000010 0
06"
#270
b111010 "
b0 -"
16"
#275
b1001010000000000011111000 0
06"
#280
b111011 "
1P
1Q
b0 U
b11111000 -"
16"
#285
b11111111001011000000000010111100 0
06"
#290
b111100 "
0P
0Q
b1111111111111111 U
b10111100 -"
16"
#295
b111110000000011000111000 0
06"
#300
b111101 "
b0 U
b1 e
b111000 -"
16"
#305
b111000001000000000001000010 0
06"
#310
b111110 "
b100000000 e
b1 y
b1 +"
b0 -"
16"
#315
b1001011000001111010111100 0
06"
#320
b111111 "
b0 e
b100000000 y
b10111100 -"
16"
#325
b1001111100101010011100 0
06"
#330
b1000000 "
b1111111111111111 U
b0 y
b0 +"
b10011100 -"
16"
#335
b1000011 0
06"
#340
b1000001 "
b0 U
b100000010 e
b1000011 -"
16"
#345
b1011010001010000000000011111000 0
06"
#350
b1 e
b100000010 y
b1 +"
b0 -"
16"
#355
b10 q
06"
#360
1Q
b1111111111111111 U
b0 e
b1 y
b0 +"
16"
#365
06"
#370
0Q
b0 y
16"
#375
06"
#380
b1110 "
16"
#385
b1000001000000000001000010 0
06"
#390
b1111 "
b1000010 -"
16"
#395
b1001100000000000001000010 0
06"
#400
b1000001 "
b0 -"
16"
#405
b1011010001010000000000011111000 0
06"
#410
b1000010 "
1P
1Q
b0 U
b11111000 -"
16"
#415
b10100101001010000000000111111000 0
06"
#420
b1000011 "
0P
0Q
b1111111111111111 U
16"
#425
b0 0
06"
#430
b1000100 "
b0 U
b1011010 e
b0 -"
16"
#435
06"
#440
b1000101 "
b10100101 e
b1011010 y
b1 +"
16"
#445
b1001000000000110000000 0
06"
#450
b1000110 "
b1111111111111111 U
b0 e
b10100101 y
b10000000 -"
16"
#455
b11111111000010000000000110111100 0
06"
#460
b1000111 "
b0 y
b0 +"
b10111100 -"
16"
#465
b1001001000000011000111000 0
06"
#470
b1001000 "
b0 U
b10111111111 e
b111000 -"
16"
#475
b111000001000000000001000010 0
06"
#480
b1001001 "
b10100000000 e
b1010010111111111 y
b1 +"
b0 -"
16"
#485
b1001011000001111010111100 0
06"
#490
b1001010 "
b0 e
b1010010100000000 y
b0 +"
b10111100 -"
16"
#495
b1001111100101010011100 0
06"
#500
b1001011 "
b1111111111111111 U
b0 y
b10011100 -"
16"
#505
b1000011 0
06"
#510
b1001100 "
b0 U
b1000000011 e
b1000011 -"
16"
#515
b1011010001010000000000011111000 0
06"
#520
b10 e
b1000000011 y
b1 +"
b0 -"
16"
#525
b11 q
06"
#530
1Q
b1111111111111111 U
b0 e
b10 y
b0 +"
16"
#535
06"
#540
0Q
b0 y
16"
#545
06"
#550
b1111 "
16"
#555
b1001100000000000001000010 0
06"
#560
b10000 "
b1000010 -"
16"
#565
b1010100000000000001000010 0
06"
#570
b1001100 "
b0 -"
16"
#575
b1011010001010000000000011111000 0
06"
#580
b1001101 "
1P
1Q
b11111000 -"
16"
#585
b10100101001011000000000010111100 0
06"
#590
b1001110 "
0P
0Q
b10111100 -"
16"
#595
b11111111000010000000000010111100 0
06"
#600
b1001111 "
b0 U
b1011010 e
16"
#605
b1010001000000011000111000 0
06"
#610
b1010000 "
b101011111111 e
b1011010 y
b1 +"
b111000 -"
16"
#615
b111000001000000000001000010 0
06"
#620
b1010001 "
b101000000000 e
b101101011111111 y
b0 -"
16"
#625
b1001011000001111010111100 0
06"
#630
b1010010 "
b0 e
b101101000000000 y
b0 +"
b10111100 -"
16"
#635
b1001111100101010011100 0
06"
#640
b1010011 "
b1111111111111111 U
b0 y
b10011100 -"
16"
#645
b1000011 0
06"
#650
b1010100 "
b0 U
b1100000100 e
b1000011 -"
16"
#655
b11111111001010000000000011111000 0
06"
#660
b11 e
b1100000100 y
b1 +"
b0 -"
16"
#665
b100 q
06"
#670
1Q
b1111111111111111 U
b0 e
b11 y
b0 +"
16"
#675
06"
#680
0Q
b0 y
16"
#685
06"
#690
b10000 "
16"
#695
b1010100000000000001000010 0
06"
#700
b10001 "
b1000010 -"
16"
#705
b1011111000000000001000010 0
06"
#710
b1010100 "
b0 -"
16"
#715
b11111111001010000000000011111000 0
06"
#720
b1010101 "
1P
1Q
b11111000 -"
16"
#725
b1111001010000000000111111000 0
06"
#730
b1010110 "
0P
0Q
16"
#735
b0 0
06"
#740
b1010111 "
b0 U
b11111111 e
b0 -"
16"
#745
06"
#750
b1011000 "
b1111 e
b11111111 y
b1 +"
16"
#755
b1000000010000010000000 0
06"
#760
b1011001 "
b1111111111111111 U
b0 e
b1111 y
b10000000 -"
16"
#765
b11110000000010000000000010111100 0
06"
#770
b1011010 "
b0 y
b0 +"
b10111100 -"
16"
#775
b1011100000000011000111000 0
06"
#780
b1011011 "
b111111110000 e
b111000 -"
16"
#785
b111000001000000000001000010 0
06"
#790
b1011100 "
b0 U
b111100000000 e
b1111111111110000 y
b1 +"
b0 -"
16"
#795
b1001011000001111010111100 0
06"
#800
b1011101 "
b1111111111111111 U
b0 e
b1111111100000000 y
b0 +"
b10111100 -"
16"
#805
b1001111100101010011100 0
06"
#810
b1011110 "
b0 y
b10011100 -"
16"
#815
b1000011 0
06"
#820
b1011111 "
b0 U
b10000000101 e
b1000011 -"
16"
#825
b11111111001010000000000011111000 0
06"
#830
b100 e
b10000000101 y
b1 +"
b0 -"
16"
#835
b101 q
06"
#840
1Q
b1111111111111111 U
b0 e
b100 y
b0 +"
16"
#845
06"
#850
0Q
b0 y
16"
#855
06"
#860
b10001 "
16"
#865
b1011111000000000001000010 0
06"
#870
b10010 "
b1000010 -"
16"
#875
b1100111000000000001000010 0
06"
#880
b1011111 "
b0 -"
16"
#885
b11111111001010000000000011111000 0
06"
#890
b1100000 "
1P
1Q
b0 U
b11111000 -"
16"
#895
b1111001010000000000010111100 0
06"
#900
b1100001 "
0P
0Q
b1111111111111111 U
b10111100 -"
16"
#905
b11110000000010000000000010111100 0
06"
#910
b1100010 "
b0 U
b11111111 e
16"
#915
b1100100000000011000111000 0
06"
#920
b1100011 "
b11110000 e
b11111111 y
b1 +"
b111000 -"
16"
#925
b111000001000000000001000010 0
06"
#930
b1100100 "
b0 e
b1111000011110000 y
b0 -"
16"
#935
b1001011000001111010111100 0
06"
#940
b1100101 "
b1111111111111111 U
b1111000000000000 y
b0 +"
b10111100 -"
16"
#945
b1001111100101010011100 0
06"
#950
b1100110 "
b0 y
b10011100 -"
16"
#955
b1000011 0
06"
#960
b1100111 "
b0 U
b10100000110 e
b1000011 -"
16"
#965
b11111111001010000000000011111000 0
06"
#970
b101 e
b10100000110 y
b1 +"
b0 -"
16"
#975
b110 q
06"
#980
1Q
b1111111111111111 U
b0 e
b101 y
b0 +"
16"
#985
06"
#990
0Q
b0 y
16"
#995
06"
#1000
b10010 "
16"
#1005
b1100111000000000001000010 0
06"
#1010
b10011 "
b1000010 -"
16"
#1015
b1111000000000000001000010 0
06"
#1020
b1100111 "
b0 -"
16"
#1025
b11111111001010000000000011111000 0
06"
#1030
b1101000 "
1P
1Q
b0 U
b11111000 -"
16"
#1035
b11110000001010000000000111111000 0
06"
#1040
b1101001 "
0P
0Q
b1111111111111111 U
16"
#1045
b0 0
06"
#1050
b1101010 "
b0 U
b11111111 e
b0 -"
16"
#1055
06"
#1060
b1101011 "
b11110000 e
b11111111 y
b1 +"
16"
#1065
b10000010000000 0
06"
#1070
b1101100 "
b1111111111111111 U
b0 e
b11110000 y
b10000000 -"
16"
#1075
b1101110000000001000111000 0
06"
#1080
b1101101 "
b0 y
b0 +"
b111000 -"
16"
#1085
b111000001000000000001000010 0
06"
#1090
b1101110 "
b111100001111 e
b0 -"
16"
#1095
b11111111001010000000000011111000 0
06"
#1100
b1101111 "
b0 U
b0 e
b1111111100001111 y
b11111000 -"
16"
#1105
b11111111001010000000000111111000 0
06"
#1110
b1110000 "
b1111111111111111 U
b0 y
16"
#1115
b0 0
06"
#1120
b1110001 "
b0 U
b11111111 e
b0 -"
16"
#1125
06"
#1130
b1110010 "
b11111111 y
b1 +"
16"
#1135
b10000010000000 0
06"
#1140
b1110011 "
b1111111111111111 U
b0 e
b10000000 -"
16"
#1145
b1110101000000011000111000 0
06"
#1150
b1110100 "
b0 y
b0 +"
b111000 -"
16"
#1155
b111000001000000000001000010 0
06"
#1160
b1110101 "
b111100000000 e
b0 -"
16"
#1165
b1001011000001111010111100 0
06"
#1170
b1110110 "
b0 U
b0 e
b1111111100000000 y
b10111100 -"
16"
#1175
b1001111100101010011100 0
06"
#1180
b1110111 "
b1111111111111111 U
b0 y
b10011100 -"
16"
#1185
b1000011 0
06"
#1190
b1111000 "
b0 U
b11000000111 e
b1000011 -"
16"
#1195
b11111111001010000000000011111000 0
06"
#1200
b110 e
b11000000111 y
b1 +"
b0 -"
16"
#1205
b111 q
06"
#1210
1Q
b1111111111111111 U
b0 e
b110 y
b0 +"
16"
#1215
06"
#1220
0Q
b0 y
16"
#1225
06"
#1230
b10011 "
16"
#1235
b1111000000000000001000010 0
06"
#1240
b10100 "
b1000010 -"
16"
#1245
b10000011000000000001000010 0
06"
#1250
b1111000 "
b0 -"
16"
#1255
b11111111001010000000000011111000 0
06"
#1260
b1111001 "
1P
1Q
b11111000 -"
16"
#1265
b11110000000010000000000010111100 0
06"
#1270
b1111010 "
0P
0Q
b10111100 -"
16"
#1275
b1111100000000001000111000 0
06"
#1280
b1111011 "
b0 U
b11111111 e
b111000 -"
16"
#1285
b111000001000000000001000010 0
06"
#1290
b1111100 "
b111100001111 e
b11111111 y
b1 +"
b0 -"
16"
#1295
b11111111001010000000000011111000 0
06"
#1300
b1111101 "
b1111111111111111 U
b0 e
b1111111100001111 y
b0 +"
b11111000 -"
16"
#1305
b11111111000010000000000010111100 0
06"
#1310
b1111110 "
b0 y
b10111100 -"
16"
#1315
b10000000000000011000111000 0
06"
#1320
b1111111 "
b0 U
b11111111 e
b111000 -"
16"
#1325
b111000001000000000001000010 0
06"
#1330
b10000000 "
b111100000000 e
b11111111 y
b1 +"
b0 -"
16"
#1335
b1001011000001111010111100 0
06"
#1340
b10000001 "
b1111111111111111 U
b0 e
b1111111100000000 y
b0 +"
b10111100 -"
16"
#1345
b1001111100101010011100 0
06"
#1350
b10000010 "
b0 y
b10011100 -"
16"
#1355
b1000011 0
06"
#1360
b10000011 "
b0 U
b11100001000 e
b1000011 -"
16"
#1365
b11111111001010000000000011111000 0
06"
#1370
b111 e
b11100001000 y
b1 +"
b0 -"
16"
#1375
b1000 q
06"
#1380
1Q
b1111111111111111 U
b0 e
b111 y
b0 +"
16"
#1385
06"
#1390
0Q
b0 y
16"
#1395
06"
#1400
b10100 "
16"
#1405
b10000011000000000001000010 0
06"
#1410
b10101 "
b1000010 -"
16"
#1415
b10010001000000000001000010 0
06"
#1420
b10000011 "
b0 -"
16"
#1425
b11111111001010000000000011111000 0
06"
#1430
b10000100 "
1P
1Q
b0 U
b11111000 -"
16"
#1435
b11001010000000000111111000 0
06"
#1440
b10000101 "
0P
0Q
b1111111111111111 U
16"
#1445
b0 0
06"
#1450
b10000110 "
b0 U
b11111111 e
b0 -"
16"
#1455
06"
#1460
b10000111 "
b11 e
b11111111 y
b1 +"
16"
#1465
b1000000010000010001110 0
06"
#1470
b10001000 "
b1111111111111111 U
b0 e
b11 y
b10001110 -"
16"
#1475
b11111101000010000000000010111100 0
06"
#1480
b10001001 "
b0 y
b0 +"
b10111100 -"
16"
#1485
b10001011000000011000111000 0
06"
#1490
b10001010 "
b1011111101 e
b111000 -"
16"
#1495
b111000001000000000001000010 0
06"
#1500
b10001011 "
b0 U
b111100000000 e
b1011111101 y
b11 +"
b0 -"
16"
#1505
b10000010000000000110111100 0
06"
#1510
b10001100 "
b0 e
b1111111100000000 y
b0 +"
b10111100 -"
16"
#1515
b10001110000000011000111000 0
06"
#1520
b10001101 "
b1111111111111111 U
b0 y
b111000 -"
16"
#1525
b111000001000000000001000010 0
06"
#1530
b10001110 "
b0 U
b1000000000 e
b0 -"
16"
#1535
b1001011000001111010111100 0
06"
#1540
b10001111 "
b0 e
b1000000000 y
b10111100 -"
16"
#1545
b1001111100101010011100 0
06"
#1550
b10010000 "
b1111111111111111 U
b0 y
b10011100 -"
16"
#1555
b1000011 0
06"
#1560
b10010001 "
b0 U
b100000001001 e
b1000011 -"
16"
#1565
b11111111001010000000000011111000 0
06"
#1570
b1000 e
b100000001001 y
b1 +"
b0 -"
16"
#1575
b1001 q
06"
#1580
1Q
b1111111111111111 U
b0 e
b1000 y
b0 +"
16"
#1585
06"
#1590
0Q
b0 y
16"
#1595
06"
#1600
b10101 "
16"
#1605
b10010001000000000001000010 0
06"
#1610
b10110 "
b1000010 -"
16"
#1615
b10011100000000000001000010 0
06"
#1620
b10010001 "
b0 -"
16"
#1625
b11111111001010000000000011111000 0
06"
#1630
b10010010 "
1P
1Q
b0 U
b11111000 -"
16"
#1635
b11001010000010000010011110 0
06"
#1640
b10010011 "
0P
0Q
b1111111111111111 U
b10011110 -"
16"
#1645
b11111101000010000000000010111100 0
06"
#1650
b10010100 "
b0 U
b11111111 e
b10111100 -"
16"
#1655
b10001011000000011000111000 0
06"
#1660
b10010101 "
b1011111101 e
b11111111 y
b1 +"
b111000 -"
16"
#1665
b111000001000000000001000010 0
06"
#1670
b10001011 "
b110100000000 e
b1011111101 y
b11 +"
b0 -"
16"
#1675
b10000010000000000110111100 0
06"
#1680
b10001100 "
b0 e
b1111110100000000 y
b0 +"
b10111100 -"
16"
#1685
b10001110000000011000111000 0
06"
#1690
b10001101 "
b1111111111111111 U
b0 y
b111000 -"
16"
#1695
b111000001000000000001000010 0
06"
#1700
b10001110 "
b0 U
b1000000000 e
b0 -"
16"
#1705
b1001011000001111010111100 0
06"
#1710
b10001111 "
b0 e
b1000000000 y
b10111100 -"
16"
#1715
b1001111100101010011100 0
06"
#1720
b10010000 "
b1111111111111111 U
b0 y
b10011100 -"
16"
#1725
b1000011 0
06"
#1730
b10010001 "
b0 U
b100100001010 e
b1000011 -"
16"
#1735
b11111111001010000000000011111000 0
06"
#1740
b1001 e
b100100001010 y
b1 +"
b0 -"
16"
#1745
b1010 q
06"
#1750
1Q
b1111111111111111 U
b0 e
b1001 y
b0 +"
16"
#1755
06"
#1760
0Q
b0 y
16"
#1765
06"
#1770
b10110 "
16"
#1775
b10011100000000000001000010 0
06"
#1780
b10111 "
b1000010 -"
16"
#1785
b10100111000000000001000010 0
06"
#1790
b10011100 "
b0 -"
16"
#1795
b11111111001010000000000011111000 0
06"
#1800
b10011101 "
1P
1Q
b11111000 -"
16"
#1805
b1111001010000000000111111000 0
06"
#1810
b10011110 "
0P
0Q
16"
#1815
b0 0
06"
#1820
b10011111 "
b0 U
b11111111 e
b0 -"
16"
#1825
06"
#1830
b10100000 "
b1111 e
b11111111 y
b1 +"
16"
#1835
b1001000000000110010111 0
06"
#1840
b10100001 "
b1111111111111111 U
b0 e
b1111 y
b10010111 -"
16"
#1845
b1111000010000000000110111100 0
06"
#1850
b10100010 "
b0 y
b0 +"
b10111100 -"
16"
#1855
b10100100000000011000111000 0
06"
#1860
b10100011 "
b0 U
b111100001111 e
b111000 -"
16"
#1865
b111000001000000000001000010 0
06"
#1870
b10100100 "
b111100000000 e
b111100001111 y
b1 +"
b0 -"
16"
#1875
b1001011000001111010111100 0
06"
#1880
b10100101 "
b1111111111111111 U
b0 e
b111100000000 y
b0 +"
b10111100 -"
16"
#1885
b1001111100101010011100 0
06"
#1890
b10100110 "
b0 y
b10011100 -"
16"
#1895
b1000011 0
06"
#1900
b10100111 "
b0 U
b101000001011 e
b1000011 -"
16"
#1905
b11111111001010000000000011111000 0
06"
#1910
b1010 e
b101000001011 y
b1 +"
b0 -"
16"
#1915
b1011 q
06"
#1920
1Q
b1111111111111111 U
b0 e
b1010 y
b0 +"
16"
#1925
06"
#1930
0Q
b0 y
16"
#1935
06"
#1940
b10111 "
16"
#1945
b10100111000000000001000010 0
06"
#1950
b11000 "
b1000010 -"
16"
#1955
b10101111000000000001000010 0
06"
#1960
b10100111 "
b0 -"
16"
#1965
b11111111001010000000000011111000 0
06"
#1970
b10101000 "
1P
1Q
b0 U
b11111000 -"
16"
#1975
b1111001011000000000010011011 0
06"
#1980
b10101001 "
0P
0Q
b1111111111111111 U
b10011011 -"
16"
#1985
b1111000010000000000010111100 0
06"
#1990
b10101010 "
b0 U
b11111111 e
b10111100 -"
16"
#1995
b10101100000000011000111000 0
06"
#2000
b10101011 "
b111100001111 e
b11111111 y
b1 +"
b111000 -"
16"
#2005
b111000001000000000001000010 0
06"
#2010
b10101100 "
b111100000000 e
b1111111100001111 y
b0 -"
16"
#2015
b1001011000001111010111100 0
06"
#2020
b10101101 "
b1111111111111111 U
b0 e
b1111111100000000 y
b0 +"
b10111100 -"
16"
#2025
b1001111100101010011100 0
06"
#2030
b10101110 "
b0 y
b10011100 -"
16"
#2035
b1000011 0
06"
#2040
b10101111 "
b0 U
b101100001100 e
b1000011 -"
16"
#2045
b11110000001010000000000011111000 0
06"
#2050
b1011 e
b101100001100 y
b1 +"
b0 -"
16"
#2055
b1100 q
06"
#2060
1Q
b1111111111111111 U
b0 e
b1011 y
b0 +"
16"
#2065
06"
#2070
0Q
b0 y
16"
#2075
06"
#2080
b11000 "
16"
#2085
b10101111000000000001000010 0
06"
#2090
b11001 "
b1000010 -"
16"
#2095
b10111010000000000001000010 0
06"
#2100
b10101111 "
b0 -"
16"
#2105
b11110000001010000000000011111000 0
06"
#2110
b10110000 "
1P
1Q
b0 U
b11111000 -"
16"
#2115
b1111001010000000000111111000 0
06"
#2120
b10110001 "
0P
0Q
b1111111111111111 U
16"
#2125
b0 0
06"
#2130
b10110010 "
b0 U
b11110000 e
b0 -"
16"
#2135
06"
#2140
b10110011 "
b1111 e
b11110000 y
b1 +"
16"
#2145
b1000000000000110010111 0
06"
#2150
b10110100 "
b1111111111111111 U
b0 e
b1111 y
b10010111 -"
16"
#2155
b11111111000010000000000110111100 0
06"
#2160
b10110101 "
b0 y
b0 +"
b10111100 -"
16"
#2165
b10110111000000011000111000 0
06"
#2170
b10110110 "
b111111111111 e
b111000 -"
16"
#2175
b111000001000000000001000010 0
06"
#2180
b10110111 "
b0 U
b111100000000 e
b111111111111 y
b1 +"
b0 -"
16"
#2185
b1001011000001111010111100 0
06"
#2190
b10111000 "
b0 e
b111100000000 y
b0 +"
b10111100 -"
16"
#2195
b1001111100101010011100 0
06"
#2200
b10111001 "
b1111111111111111 U
b0 y
b10011100 -"
16"
#2205
b1000011 0
06"
#2210
b10111010 "
b0 U
b110000001101 e
b1000011 -"
16"
#2215
b11110000001010000000000011111000 0
06"
#2220
b1100 e
b110000001101 y
b1 +"
b0 -"
16"
#2225
b1101 q
06"
#2230
1Q
b1111111111111111 U
b0 e
b1100 y
b0 +"
16"
#2235
06"
#2240
0Q
b0 y
16"
#2245
06"
#2250
b11001 "
16"
#2255
b10111010000000000001000010 0
06"
#2260
b11010 "
b1000010 -"
16"
#2265
b11001010000000000001000010 0
06"
#2270
b10111010 "
b0 -"
16"
#2275
b11110000001010000000000011111000 0
06"
#2280
b10111011 "
1P
1Q
b0 U
b11111000 -"
16"
#2285
b1111001010000000000110011011 0
06"
#2290
b10111100 "
0P
0Q
b1111111111111111 U
b10011011 -"
16"
#2295
b11111111000010000000000110111100 0
06"
#2300
b10111101 "
b0 U
b11110000 e
b10111100 -"
16"
#2305
b10110111000000011000111000 0
06"
#2310
b10111110 "
b111111111111 e
b11110000 y
b1 +"
b111000 -"
16"
#2315
b111000001000000000001000010 0
06"
#2320
b10110111 "
b111100000000 e
b1111111111111111 y
b0 -"
16"
#2325
b1001011000001111010111100 0
06"
#2330
b10111000 "
b0 e
b1111111100000000 y
b0 +"
b10111100 -"
16"
#2335
b1001111100101010011100 0
06"
#2340
b10111001 "
b1111111111111111 U
b0 y
b10011100 -"
16"
#2345
b1000011 0
06"
#2350
b10111010 "
b0 U
b110100001110 e
b1000011 -"
16"
#2355
b11110000001010000000000011111000 0
06"
#2360
b1101 e
b110100001110 y
b1 +"
b0 -"
16"
#2365
b1110 q
06"
#2370
1Q
b1111111111111111 U
b0 e
b1101 y
b0 +"
16"
#2375
06"
#2380
0Q
b0 y
16"
#2385
06"
#2390
b11010 "
16"
#2395
b11001010000000000001000010 0
06"
#2400
b11011 "
b1000010 -"
16"
#2405
b11000010000000000001000010 0
06"
#2410
b11001010 "
b0 -"
16"
#2415
b11111111001010000000000011111000 0
06"
#2420
b11001011 "
1P
1Q
b0 U
b11111000 -"
16"
#2425
b1000000000000010100101 0
06"
#2430
b11001100 "
0P
0Q
b1111111111111111 U
b10100101 -"
16"
#2435
b11111110000010000000000010111100 0
06"
#2440
b11001101 "
b0 U
b11111111 e
b10111100 -"
16"
#2445
b11001111000000011000111000 0
06"
#2450
b11001110 "
b1111111111111111 U
b11111110 e
b11111111 y
b1 +"
b111000 -"
16"
#2455
b111000001000000000001000010 0
06"
#2460
b11001111 "
b0 U
b0 e
b1111000011111110 y
b0 -"
16"
#2465
b1001011000001111010111100 0
06"
#2470
b11010000 "
b1111000000000000 y
b0 +"
b10111100 -"
16"
#2475
b1001111100101010011100 0
06"
#2480
b11010001 "
b1111111111111111 U
b0 y
b10011100 -"
16"
#2485
b1000011 0
06"
#2490
b11010010 "
b0 U
b111000001111 e
b1000011 -"
16"
#2495
b1001010000000000011111000 0
06"
#2500
b1110 e
b111000001111 y
b1 +"
b0 -"
16"
#2505
b1111 q
06"
#2510
1Q
b1111111111111111 U
b0 e
b1110 y
b0 +"
16"
#2515
06"
#2520
0Q
b0 y
16"
#2525
06"
#2530
b11011 "
16"
#2535
b11000010000000000001000010 0
06"
#2540
b11100 "
b1000010 -"
16"
#2545
b11010010000000000001000010 0
06"
#2550
b11000010 "
b0 -"
16"
#2555
b11111111001010000000000011111000 0
06"
#2560
b11000011 "
1P
1Q
b0 U
b11111000 -"
16"
#2565
b1001000000000010100101 0
06"
#2570
b11000100 "
0P
0Q
b1111111111111111 U
b10100101 -"
16"
#2575
b1111111000010000000000010111100 0
06"
#2580
b11000101 "
b0 U
b11111111 e
b10111100 -"
16"
#2585
b11000111000000011000111000 0
06"
#2590
b11000110 "
b111001111111 e
b11111111 y
b1 +"
b111000 -"
16"
#2595
b111000001000000000001000010 0
06"
#2600
b11000111 "
b111000000000 e
b1111111001111111 y
b0 -"
16"
#2605
b1001011000001111010111100 0
06"
#2610
b11001000 "
b0 e
b1111111000000000 y
b0 +"
b10111100 -"
16"
#2615
b1001111100101010011100 0
06"
#2620
b11001001 "
b1111111111111111 U
b0 y
b10011100 -"
16"
#2625
b1000011 0
06"
#2630
b11001010 "
b0 U
b111100010000 e
b1000011 -"
16"
#2635
b11111111001010000000000011111000 0
06"
#2640
b1111 e
b111100010000 y
b1 +"
b0 -"
16"
#2645
b10000 q
06"
#2650
1Q
b1111111111111111 U
b0 e
b1111 y
b0 +"
16"
#2655
06"
#2660
0Q
b0 y
16"
#2665
06"
#2670
b11100 "
16"
#2675
b11010010000000000001000010 0
06"
#2680
b11101 "
b1000010 -"
16"
#2685
b11011010000000000001000010 0
06"
#2690
b11010010 "
b0 -"
16"
#2695
b1001010000000000011111000 0
06"
#2700
b11010011 "
1P
1Q
b0 U
b11111000 -"
16"
#2705
b1001101000000000010111100 0
06"
#2710
b11010100 "
0P
0Q
b1111111111111111 U
b10111100 -"
16"
#2715
b11111111000010000000000010111100 0
06"
#2720
b11010101 "
b0 U
b1 e
16"
#2725
b11010111000000011000111000 0
06"
#2730
b11010110 "
b111111111111 e
b1 y
b1 +"
b111000 -"
16"
#2735
b111000001000000000001000010 0
06"
#2740
b11010111 "
b111100000000 e
b111111111111111 y
b0 -"
16"
#2745
b1001011000001111010111100 0
06"
#2750
b11011000 "
b0 e
b111111100000000 y
b0 +"
b10111100 -"
16"
#2755
b1001111100101010011100 0
06"
#2760
b11011001 "
b1111111111111111 U
b0 y
b10011100 -"
16"
#2765
b1000011 0
06"
#2770
b11011010 "
b0 U
b10001 e
b1000011 -"
16"
#2775
b1010000000000011111000 0
06"
#2780
b10000 e
b1000000010001 y
b1 +"
b0 -"
16"
#2785
b10001 q
06"
#2790
1Q
b1111111111111111 U
b0 e
b10000 y
b0 +"
16"
#2795
06"
#2800
0Q
b0 y
16"
#2805
06"
#2810
b11101 "
16"
#2815
b11011010000000000001000010 0
06"
#2820
b11110 "
b1000010 -"
16"
#2825
b11100010000000000001000010 0
06"
#2830
b11011010 "
b0 -"
16"
#2835
b1010000000000011111000 0
06"
#2840
b11011011 "
1P
1Q
b0 U
b11111000 -"
16"
#2845
b1101000000000010111100 0
06"
#2850
b11011100 "
0P
0Q
b1111111111111111 U
b10111100 -"
16"
#2855
b11111111000010000000000010111100 0
06"
#2860
b11011101 "
b0 U
16"
#2865
b11011111000000011000111000 0
06"
#2870
b11011110 "
b111111111111 e
b1 +"
b111000 -"
16"
#2875
b111000001000000000001000010 0
06"
#2880
b11011111 "
b111100000000 e
b1111111111111111 y
b0 -"
16"
#2885
b1001011000001111010111100 0
06"
#2890
b11100000 "
b0 e
b1111111100000000 y
b0 +"
b10111100 -"
16"
#2895
b1001111100101010011100 0
06"
#2900
b11100001 "
b1111111111111111 U
b0 y
b10011100 -"
16"
#2905
b1000011 0
06"
#2910
b11100010 "
b0 U
b100010010 e
b1000011 -"
16"
#2915
b1001011001010000000000011111000 0
06"
#2920
b10001 e
b1000100010010 y
b1 +"
b0 -"
16"
#2925
b10010 q
06"
#2930
1Q
b1111111111111111 U
b0 e
b10001 y
b0 +"
16"
#2935
06"
#2940
0Q
b0 y
16"
#2945
06"
#2950
b11110 "
16"
#2955
b11100010000000000001000010 0
06"
#2960
b11111 "
b1000010 -"
16"
#2965
b11101011000000000001000010 0
06"
#2970
b11100010 "
b0 -"
16"
#2975
b1001011001010000000000011111000 0
06"
#2980
b11100011 "
1P
1Q
b0 U
b11111000 -"
16"
#2985
b0 0
06"
#2990
b11100100 "
0P
0Q
b1111111111111111 U
b0 -"
16"
#2995
06"
#3000
b11100101 "
b0 U
b1001011 e
16"
#3005
b1001011000010000000000010111100 0
06"
#3010
b11100110 "
b1111111111111111 U
b0 e
b1001011 y
b1 +"
b10111100 -"
16"
#3015
b11101000000000011000111000 0
06"
#3020
b11100111 "
b0 y
b0 +"
b111000 -"
16"
#3025
b111000001000000000001000010 0
06"
#3030
b11101000 "
b0 U
b101100000000 e
b0 -"
16"
#3035
b1001011000001111010111100 0
06"
