src/soc/finalhardtest.vcd
$date
        2022-Apr-25 16:08:29
$end
$version
        Vivado v2021.1 (64-bit)
$end
$timescale
        1ps
$end
$scope module dut $end
$var reg 14 " prog_mem_addra [13:0] $end
$var reg 32 0 prog_mem_douta [31:0] $end
$var reg 1 P mem_wen $end
$var reg 1 Q call_stk_en $end
$var reg 1 R main_mem_en $end
$var reg 1 S fb_en $end
$var reg 1 T prog_mem_en $end
$var reg 16 U addr_in [15:0] $end
$var reg 12 e data_in [11:0] $end
$var reg 8 q led_OBUF [7:0] $end
$var reg 16 y memwb_data [15:0] $end
$var reg 2 +" reg_file_wen [1:0] $end
$var reg 8 -" mem_wb_opcode [7:0] $end
$var reg 1 5" nreset $end
$var reg 1 6" core_clk $end
$var reg 1 7" _TRIGGER $end
$var reg 1 8" _WINDOW $end
$var reg 1 9" _GAP $end
$upscope $end
$enddefinitions $end
#0
$dumpvars
b0 "
b11000000010000111000 0
0P
0Q
0R
0S
0T
b0 U
b0 e
b0 q
b0 y
b0 +"
b0 -"
15"
16"
17"
18"
09"
$end
#4
06"
#10
b1 "
16"
#14
06"
#15
b110000000000010000111000 0
#20
b11 "
16"
#24
06"
#25
b11111111001010000000000011111000 0
#30
b100 "
16"
#34
06"
#35
b1001000000000110011100 0
#40
b101 "
b111000 -"
16"
#44
06"
#45
b1001000000000010011100 0
#50
b110 "
b11111111 e
b0 -"
16"
#54
06"
#55
b1010000000000011111000 0
#60
b111 "
b0 e
b11111111 y
b1 +"
b11111000 -"
16"
#64
06"
#65
b1001000000100110011100 0
#70
b1000 "
b0 y
b0 +"
b10011100 -"
16"
#74
06"
#75
b1010000001111111111000 0
#80
b1001 "
16"
#84
06"
#85
b1010000001111011111000 0
#90
b1010 "
b11111111 e
b1 +"
b11111000 -"
16"
#94
06"
#95
b11111111001010000000000011111000 0
#100
b1011 "
b0 e
b11111111 y
b0 +"
b10011100 -"
16"
#104
06"
#105
b1001000000100010011100 0
#110
b1100 "
b0 y
b1 +"
b11111000 -"
16"
#114
06"
#115
b110010000000000001000010 0
#120
b1101 "
b11111111 e
16"
#124
06"
#125
b111010000000000001000010 0
#130
b110010 "
b0 e
b11111111 y
16"
#134
06"
#135
b1010000000000011111000 0
#140
b110011 "
1P
1Q
b0 y
b0 +"
b10011100 -"
16"
#144
06"
#145
b1001011000000000010111100 0
#150
b110100 "
0P
0Q
b1111111111111111 U
b1000010 -"
16"
#154
06"
#155
b1000010000000000010111100 0
#160
b110101 "
b0 U
b0 -"
16"
#164
06"
#165
b110111000000011000111000 0
#170
b110110 "
b111100000001 e
b1 +"
b11111000 -"
16"
#174
06"
#175
b111000001000000000001000010 0
#180
b110111 "
b111100000000 e
b1111111100000001 y
b10111100 -"
16"
#184
06"
#185
b1001011000001111010111100 0
#190
b111000 "
b0 e
b1111111100000000 y
b0 +"
16"
#194
06"
#195
b1001111100101010011100 0
#200
b111001 "
b1111111111111111 U
b0 y
b111000 -"
16"
#204
06"
#205
b1000011 0
#210
b111010 "
b0 U
b1 e
b0 -"
16"
#214
06"
#215
b1001010000000000011111000 0
#220
b0 e
b1 y
b1 +"
b10111100 -"
16"
#224
06"
#225
b1 q
#230
1Q
b1111111111111111 U
b0 y
b0 +"
b10011100 -"
16"
#234
06"
#240
0Q
b1000011 -"
16"
#244
06"
#250
b1101 "
b0 -"
16"
#254
06"
#255
b111010000000000001000010 0
#260
b1110 "
16"
#264
06"
#265
b1000001000000000001000010 0
#270
b111010 "
16"
#274
06"
#275
b1001010000000000011111000 0
#280
b111011 "
1P
1Q
b0 U
16"
#284
06"
#285
b11111111001011000000000010111100 0
#290
b111100 "
0P
0Q
b1111111111111111 U
b1000010 -"
16"
#294
06"
#295
b111110000000011000111000 0
#300
b111101 "
b0 U
b1 e
b0 -"
16"
#304
06"
#305
b111000001000000000001000010 0
#310
b111110 "
b100000000 e
b1 y
b1 +"
b11111000 -"
16"
#314
06"
#315
b1001011000001111010111100 0
#320
b111111 "
b0 e
b100000000 y
b10111100 -"
16"
#324
06"
#325
b1001111100101010011100 0
#330
b1000000 "
b1111111111111111 U
b0 y
b0 +"
b111000 -"
16"
#334
06"
#335
b1000011 0
#340
b1000001 "
b0 U
b100000010 e
b0 -"
16"
#344
06"
#345
b1011010001010000000000011111000 0
#350
b1 e
b100000010 y
b1 +"
b10111100 -"
16"
#354
06"
#355
b10 q
#360
1Q
b1111111111111111 U
b0 e
b1 y
b0 +"
b10011100 -"
16"
#364
06"
#370
0Q
b0 y
b1000011 -"
16"
#374
06"
#380
b1110 "
b0 -"
16"
#384
06"
#385
b1000001000000000001000010 0
#390
b1111 "
16"
#394
06"
#395
b1001100000000000001000010 0
#400
b1000001 "
16"
#404
06"
#405
b1011010001010000000000011111000 0
#410
b1000010 "
1P
1Q
b0 U
16"
#414
06"
#415
b10100101001010000000000111111000 0
#420
b1000011 "
0P
0Q
b1111111111111111 U
b1000010 -"
16"
#424
06"
#425
b0 0
#430
b1000100 "
b0 U
b1011010 e
b0 -"
16"
#434
06"
#440
b1000101 "
b10100101 e
b1011010 y
b1 +"
b11111000 -"
16"
#444
06"
#445
b1001000000000110000000 0
#450
b1000110 "
b1111111111111111 U
b0 e
b10100101 y
16"
#454
06"
#455
b11111111000010000000000110111100 0
#460
b1000111 "
b0 y
b0 +"
b0 -"
16"
#464
06"
#465
b1001001000000011000111000 0
#470
b1001000 "
b0 U
b10111111111 e
16"
#474
06"
#475
b111000001000000000001000010 0
#480
b1001001 "
b10100000000 e
b1010010111111111 y
b1 +"
b10000000 -"
16"
#484
06"
#485
b1001011000001111010111100 0
#490
b1001010 "
b0 e
b1010010100000000 y
b0 +"
b10111100 -"
16"
#494
06"
#495
b1001111100101010011100 0
#500
b1001011 "
b1111111111111111 U
b0 y
b111000 -"
16"
#504
06"
#505
b1000011 0
#510
b1001100 "
b0 U
b1000000011 e
b0 -"
16"
#514
06"
#515
b1011010001010000000000011111000 0
#520
b10 e
b1000000011 y
b1 +"
b10111100 -"
16"
#524
06"
#525
b11 q
#530
1Q
b1111111111111111 U
b0 e
b10 y
b0 +"
b10011100 -"
16"
#534
06"
#540
0Q
b0 y
b1000011 -"
16"
#544
06"
#550
b1111 "
b0 -"
16"
#554
06"
#555
b1001100000000000001000010 0
#560
b10000 "
16"
#564
06"
#565
b1010100000000000001000010 0
#570
b1001100 "
16"
#574
06"
#575
b1011010001010000000000011111000 0
#580
b1001101 "
1P
1Q
16"
#584
06"
#585
b10100101001011000000000010111100 0
#590
b1001110 "
0P
0Q
b1000010 -"
16"
#594
06"
#595
b11111111000010000000000010111100 0
#600
b1001111 "
b0 U
b1011010 e
b0 -"
16"
#604
06"
#605
b1010001000000011000111000 0
#610
b1010000 "
b101011111111 e
b1011010 y
b1 +"
b11111000 -"
16"
#614
06"
#615
b111000001000000000001000010 0
#620
b1010001 "
b101000000000 e
b101101011111111 y
b10111100 -"
16"
#624
06"
#625
b1001011000001111010111100 0
#630
b1010010 "
b0 e
b101101000000000 y
b0 +"
16"
#634
06"
#635
b1001111100101010011100 0
#640
b1010011 "
b1111111111111111 U
b0 y
b111000 -"
16"
#644
06"
#645
b1000011 0
#650
b1010100 "
b0 U
b1100000100 e
b0 -"
16"
#654
06"
#655
b11111111001010000000000011111000 0
#660
b11 e
b1100000100 y
b1 +"
b10111100 -"
16"
#664
06"
#665
b100 q
#670
1Q
b1111111111111111 U
b0 e
b11 y
b0 +"
b10011100 -"
16"
#674
06"
#680
0Q
b0 y
b1000011 -"
16"
#684
06"
#690
b10000 "
b0 -"
16"
#694
06"
#695
b1010100000000000001000010 0
#700
b10001 "
16"
#704
06"
#705
b1011111000000000001000010 0
#710
b1010100 "
16"
#714
06"
#715
b11111111001010000000000011111000 0
#720
b1010101 "
1P
1Q
16"
#724
06"
#725
b1111001010000000000111111000 0
#730
b1010110 "
0P
0Q
b1000010 -"
16"
#734
06"
#735
b0 0
#740
b1010111 "
b0 U
b11111111 e
b0 -"
16"
#744
06"
#750
b1011000 "
b1111 e
b11111111 y
b1 +"
b11111000 -"
16"
#754
06"
#755
b1000000010000010000000 0
#760
b1011001 "
b1111111111111111 U
b0 e
b1111 y
16"
#764
06"
#765
b11110000000010000000000010111100 0
#770
b1011010 "
b0 y
b0 +"
b0 -"
16"
#774
06"
#775
b1011100000000011000111000 0
#780
b1011011 "
b111111110000 e
16"
#784
06"
#785
b111000001000000000001000010 0
#790
b1011100 "
b0 U
b111100000000 e
b1111111111110000 y
b1 +"
b10000000 -"
16"
#794
06"
#795
b1001011000001111010111100 0
#800
b1011101 "
b1111111111111111 U
b0 e
b1111111100000000 y
b0 +"
b10111100 -"
16"
#804
06"
#805
b1001111100101010011100 0
#810
b1011110 "
b0 y
b111000 -"
16"
#814
06"
#815
b1000011 0
#820
b1011111 "
b0 U
b10000000101 e
b0 -"
16"
#824
06"
#825
b11111111001010000000000011111000 0
#830
b100 e
b10000000101 y
b1 +"
b10111100 -"
16"
#834
06"
#835
b101 q
#840
1Q
b1111111111111111 U
b0 e
b100 y
b0 +"
b10011100 -"
16"
#844
06"
#850
0Q
b0 y
b1000011 -"
16"
#854
06"
#860
b10001 "
b0 -"
16"
#864
06"
#865
b1011111000000000001000010 0
#870
b10010 "
16"
#874
06"
#875
b1100111000000000001000010 0
#880
b1011111 "
16"
#884
06"
#885
b11111111001010000000000011111000 0
#890
b1100000 "
1P
1Q
b0 U
16"
#894
06"
#895
b1111001010000000000010111100 0
#900
b1100001 "
0P
0Q
b1111111111111111 U
b1000010 -"
16"
#904
06"
#905
b11110000000010000000000010111100 0
#910
b1100010 "
b0 U
b11111111 e
b0 -"
16"
#914
06"
#915
b1100100000000011000111000 0
#920
b1100011 "
b11110000 e
b11111111 y
b1 +"
b11111000 -"
16"
#924
06"
#925
b111000001000000000001000010 0
#930
b1100100 "
b0 e
b1111000011110000 y
b10111100 -"
16"
#934
06"
#935
b1001011000001111010111100 0
#940
b1100101 "
b1111111111111111 U
b1111000000000000 y
b0 +"
16"
#944
06"
#945
b1001111100101010011100 0
#950
b1100110 "
b0 y
b111000 -"
16"
#954
06"
#955
b1000011 0
#960
b1100111 "
b0 U
b10100000110 e
b0 -"
16"
#964
06"
#965
b11111111001010000000000011111000 0
#970
b101 e
b10100000110 y
b1 +"
b10111100 -"
16"
#974
06"
#975
b110 q
#980
1Q
b1111111111111111 U
b0 e
b101 y
b0 +"
b10011100 -"
16"
#984
06"
#990
0Q
b0 y
b1000011 -"
16"
#994
06"
#1000
b10010 "
b0 -"
16"
#1004
06"
#1005
b1100111000000000001000010 0
#1010
b10011 "
16"
#1014
06"
#1015
b1111000000000000001000010 0
#1020
b1100111 "
16"
#1024
06"
#1025
b11111111001010000000000011111000 0
#1030
b1101000 "
1P
1Q
b0 U
16"
#1034
06"
#1035
b11110000001010000000000111111000 0
#1040
b1101001 "
0P
0Q
b1111111111111111 U
b1000010 -"
16"
#1044
06"
#1045
b0 0
#1050
b1101010 "
b0 U
b11111111 e
b0 -"
16"
#1054
06"
#1060
b1101011 "
b11110000 e
b11111111 y
b1 +"
b11111000 -"
16"
#1064
06"
#1065
b10000010000000 0
#1070
b1101100 "
b1111111111111111 U
b0 e
b11110000 y
16"
#1074
06"
#1075
b1101110000000001000111000 0
#1080
b1101101 "
b0 y
b0 +"
b0 -"
16"
#1084
06"
#1085
b111000001000000000001000010 0
#1090
b1101110 "
b111100001111 e
16"
#1094
06"
#1095
b11111111001010000000000011111000 0
#1100
b1101111 "
b0 U
b0 e
b1111111100001111 y
b10000000 -"
16"
#1104
06"
#1105
b11111111001010000000000111111000 0
#1110
b1110000 "
b1111111111111111 U
b0 y
b111000 -"
16"
#1114
06"
#1115
b0 0
#1120
b1110001 "
b0 U
b11111111 e
b0 -"
16"
#1124
06"
#1130
b1110010 "
b11111111 y
b1 +"
b11111000 -"
16"
#1134
06"
#1135
b10000010000000 0
#1140
b1110011 "
b1111111111111111 U
b0 e
16"
#1144
06"
#1145
b1110101000000011000111000 0
#1150
b1110100 "
b0 y
b0 +"
b0 -"
16"
#1154
06"
#1155
b111000001000000000001000010 0
#1160
b1110101 "
b111100000000 e
16"
#1164
06"
#1165
b1001011000001111010111100 0
#1170
b1110110 "
b0 U
b0 e
b1111111100000000 y
b10000000 -"
16"
#1174
06"
#1175
b1001111100101010011100 0
#1180
b1110111 "
b1111111111111111 U
b0 y
b111000 -"
16"
#1184
06"
#1185
b1000011 0
#1190
b1111000 "
b0 U
b11000000111 e
b0 -"
16"
#1194
06"
#1195
b11111111001010000000000011111000 0
#1200
b110 e
b11000000111 y
b1 +"
b10111100 -"
16"
#1204
06"
#1205
b111 q
#1210
1Q
b1111111111111111 U
b0 e
b110 y
b0 +"
b10011100 -"
16"
#1214
06"
#1220
0Q
b0 y
b1000011 -"
16"
#1224
06"
#1230
b10011 "
b0 -"
16"
#1234
06"
#1235
b1111000000000000001000010 0
#1240
b10100 "
16"
#1244
06"
#1245
b10000011000000000001000010 0
#1250
b1111000 "
16"
#1254
06"
#1255
b11111111001010000000000011111000 0
#1260
b1111001 "
1P
1Q
16"
#1264
06"
#1265
b11110000000010000000000010111100 0
#1270
b1111010 "
0P
0Q
b1000010 -"
16"
#1274
06"
#1275
b1111100000000001000111000 0
#1280
b1111011 "
b0 U
b11111111 e
b0 -"
16"
#1284
06"
#1285
b111000001000000000001000010 0
#1290
b1111100 "
b111100001111 e
b11111111 y
b1 +"
b11111000 -"
16"
#1294
06"
#1295
b11111111001010000000000011111000 0
#1300
b1111101 "
b1111111111111111 U
b0 e
b1111111100001111 y
b0 +"
b10111100 -"
16"
#1304
06"
#1305
b11111111000010000000000010111100 0
#1310
b1111110 "
b0 y
b111000 -"
16"
#1314
06"
#1315
b10000000000000011000111000 0
#1320
b1111111 "
b0 U
b11111111 e
b0 -"
16"
#1324
06"
#1325
b111000001000000000001000010 0
#1330
b10000000 "
b111100000000 e
b11111111 y
b1 +"
b11111000 -"
16"
#1334
06"
#1335
b1001011000001111010111100 0
#1340
b10000001 "
b1111111111111111 U
b0 e
b1111111100000000 y
b0 +"
b10111100 -"
16"
#1344
06"
#1345
b1001111100101010011100 0
#1350
b10000010 "
b0 y
b111000 -"
16"
#1354
06"
#1355
b1000011 0
#1360
b10000011 "
b0 U
b11100001000 e
b0 -"
16"
#1364
06"
#1365
b11111111001010000000000011111000 0
#1370
b111 e
b11100001000 y
b1 +"
b10111100 -"
16"
#1374
06"
#1375
b1000 q
#1380
1Q
b1111111111111111 U
b0 e
b111 y
b0 +"
b10011100 -"
16"
#1384
06"
#1390
0Q
b0 y
b1000011 -"
16"
#1394
06"
#1400
b10100 "
b0 -"
16"
#1404
06"
#1405
b10000011000000000001000010 0
#1410
b10101 "
16"
#1414
06"
#1415
b10010001000000000001000010 0
#1420
b10000011 "
16"
#1424
06"
#1425
b11111111001010000000000011111000 0
#1430
b10000100 "
1P
1Q
b0 U
16"
#1434
06"
#1435
b11001010000000000111111000 0
#1440
b10000101 "
0P
0Q
b1111111111111111 U
b1000010 -"
16"
#1444
06"
#1445
b0 0
#1450
b10000110 "
b0 U
b11111111 e
b0 -"
16"
#1454
06"
#1460
b10000111 "
b11 e
b11111111 y
b1 +"
b11111000 -"
16"
#1464
06"
#1465
b1000000010000010001110 0
#1470
b10001000 "
b1111111111111111 U
b0 e
b11 y
16"
#1474
06"
#1475
b11111101000010000000000010111100 0
#1480
b10001001 "
b0 y
b0 +"
b0 -"
16"
#1484
06"
#1485
b10001011000000011000111000 0
#1490
b10001010 "
b1011111101 e
16"
#1494
06"
#1495
b111000001000000000001000010 0
#1500
b10001011 "
b0 U
b111100000000 e
b1011111101 y
b11 +"
b10001110 -"
16"
#1504
06"
#1505
b10000010000000000110111100 0
#1510
b10001100 "
b0 e
b1111111100000000 y
b0 +"
b10111100 -"
16"
#1514
06"
#1515
b10001110000000011000111000 0
#1520
b10001101 "
b1111111111111111 U
b0 y
b111000 -"
16"
#1524
06"
#1525
b111000001000000000001000010 0
#1530
b10001110 "
b0 U
b1000000000 e
b0 -"
16"
#1534
06"
#1535
b1001011000001111010111100 0
#1540
b10001111 "
b0 e
b1000000000 y
b10111100 -"
16"
#1544
06"
#1545
b1001111100101010011100 0
#1550
b10010000 "
b1111111111111111 U
b0 y
b111000 -"
16"
#1554
06"
#1555
b1000011 0
#1560
b10010001 "
b0 U
b100000001001 e
b0 -"
16"
#1564
06"
#1565
b11111111001010000000000011111000 0
#1570
b1000 e
b100000001001 y
b1 +"
b10111100 -"
16"
#1574
06"
#1575
b1001 q
#1580
1Q
b1111111111111111 U
b0 e
b1000 y
b0 +"
b10011100 -"
16"
#1584
06"
#1590
0Q
b0 y
b1000011 -"
16"
#1594
06"
#1600
b10101 "
b0 -"
16"
#1604
06"
#1605
b10010001000000000001000010 0
#1610
b10110 "
16"
#1614
06"
#1615
b10011100000000000001000010 0
#1620
b10010001 "
16"
#1624
06"
#1625
b11111111001010000000000011111000 0
#1630
b10010010 "
1P
1Q
b0 U
16"
#1634
06"
#1635
b11001010000010000010011110 0
#1640
b10010011 "
0P
0Q
b1111111111111111 U
b1000010 -"
16"
#1644
06"
#1645
b11111101000010000000000010111100 0
#1650
b10010100 "
b0 U
b11111111 e
b0 -"
16"
#1654
06"
#1655
b10001011000000011000111000 0
#1660
b10010101 "
b1011111101 e
b11111111 y
b1 +"
b11111000 -"
16"
#1664
06"
#1665
b111000001000000000001000010 0
#1670
b10001011 "
b110100000000 e
b1011111101 y
b11 +"
b10011110 -"
16"
#1674
06"
#1675
b10000010000000000110111100 0
#1680
b10001100 "
b0 e
b1111110100000000 y
b0 +"
b10111100 -"
16"
#1684
06"
#1685
b10001110000000011000111000 0
#1690
b10001101 "
b1111111111111111 U
b0 y
b111000 -"
16"
#1694
06"
#1695
b111000001000000000001000010 0
#1700
b10001110 "
b0 U
b1000000000 e
b0 -"
16"
#1704
06"
#1705
b1001011000001111010111100 0
#1710
b10001111 "
b0 e
b1000000000 y
b10111100 -"
16"
#1714
06"
#1715
b1001111100101010011100 0
#1720
b10010000 "
b1111111111111111 U
b0 y
b111000 -"
16"
#1724
06"
#1725
b1000011 0
#1730
b10010001 "
b0 U
b100100001010 e
b0 -"
16"
#1734
06"
#1735
b11111111001010000000000011111000 0
#1740
b1001 e
b100100001010 y
b1 +"
b10111100 -"
16"
#1744
06"
#1745
b1010 q
#1750
1Q
b1111111111111111 U
b0 e
b1001 y
b0 +"
b10011100 -"
16"
#1754
06"
#1760
0Q
b0 y
b1000011 -"
16"
#1764
06"
#1770
b10110 "
b0 -"
16"
#1774
06"
#1775
b10011100000000000001000010 0
#1780
b10111 "
16"
#1784
06"
#1785
b10100111000000000001000010 0
#1790
b10011100 "
16"
#1794
06"
#1795
b11111111001010000000000011111000 0
#1800
b10011101 "
1P
1Q
16"
#1804
06"
#1805
b1111001010000000000111111000 0
#1810
b10011110 "
0P
0Q
b1000010 -"
16"
#1814
06"
#1815
b0 0
#1820
b10011111 "
b0 U
b11111111 e
b0 -"
16"
#1824
06"
#1830
b10100000 "
b1111 e
b11111111 y
b1 +"
b11111000 -"
16"
#1834
06"
#1835
b1001000000000110010111 0
#1840
b10100001 "
b1111111111111111 U
b0 e
b1111 y
16"
#1844
06"
#1845
b1111000010000000000110111100 0
#1850
b10100010 "
b0 y
b0 +"
b0 -"
16"
#1854
06"
#1855
b10100100000000011000111000 0
#1860
b10100011 "
b0 U
b111100001111 e
16"
#1864
06"
#1865
b111000001000000000001000010 0
#1870
b10100100 "
b111100000000 e
b111100001111 y
b1 +"
b10010111 -"
16"
#1874
06"
#1875
b1001011000001111010111100 0
#1880
b10100101 "
b1111111111111111 U
b0 e
b111100000000 y
b0 +"
b10111100 -"
16"
#1884
06"
#1885
b1001111100101010011100 0
#1890
b10100110 "
b0 y
b111000 -"
16"
#1894
06"
#1895
b1000011 0
#1900
b10100111 "
b0 U
b101000001011 e
b0 -"
16"
#1904
06"
#1905
b11111111001010000000000011111000 0
#1910
b1010 e
b101000001011 y
b1 +"
b10111100 -"
16"
#1914
06"
#1915
b1011 q
#1920
1Q
b1111111111111111 U
b0 e
b1010 y
b0 +"
b10011100 -"
16"
#1924
06"
#1930
0Q
b0 y
b1000011 -"
16"
#1934
06"
#1940
b10111 "
b0 -"
16"
#1944
06"
#1945
b10100111000000000001000010 0
#1950
b11000 "
16"
#1954
06"
#1955
b10101111000000000001000010 0
#1960
b10100111 "
16"
#1964
06"
#1965
b11111111001010000000000011111000 0
#1970
b10101000 "
1P
1Q
b0 U
16"
#1974
06"
#1975
b1111001011000000000010011011 0
#1980
b10101001 "
0P
0Q
b1111111111111111 U
b1000010 -"
16"
#1984
06"
#1985
b1111000010000000000010111100 0
#1990
b10101010 "
b0 U
b11111111 e
b0 -"
16"
#1994
06"
#1995
b10101100000000011000111000 0
#2000
b10101011 "
b111100001111 e
b11111111 y
b1 +"
b11111000 -"
16"
#2004
06"
#2005
b111000001000000000001000010 0
#2010
b10101100 "
b111100000000 e
b1111111100001111 y
b10011011 -"
16"
#2014
06"
#2015
b1001011000001111010111100 0
#2020
b10101101 "
b1111111111111111 U
b0 e
b1111111100000000 y
b0 +"
b10111100 -"
16"
#2024
06"
#2025
b1001111100101010011100 0
#2030
b10101110 "
b0 y
b111000 -"
16"
#2034
06"
#2035
b1000011 0
#2040
b10101111 "
b0 U
b101100001100 e
b0 -"
16"
#2044
06"
#2045
b11110000001010000000000011111000 0
#2050
b1011 e
b101100001100 y
b1 +"
b10111100 -"
16"
#2054
06"
#2055
b1100 q
#2060
1Q
b1111111111111111 U
b0 e
b1011 y
b0 +"
b10011100 -"
16"
#2064
06"
#2070
0Q
b0 y
b1000011 -"
16"
#2074
06"
#2080
b11000 "
b0 -"
16"
#2084
06"
#2085
b10101111000000000001000010 0
#2090
b11001 "
16"
#2094
06"
#2095
b10111010000000000001000010 0
#2100
b10101111 "
16"
#2104
06"
#2105
b11110000001010000000000011111000 0
#2110
b10110000 "
1P
1Q
b0 U
16"
#2114
06"
#2115
b1111001010000000000111111000 0
#2120
b10110001 "
0P
0Q
b1111111111111111 U
b1000010 -"
16"
#2124
06"
#2125
b0 0
#2130
b10110010 "
b0 U
b11110000 e
b0 -"
16"
#2134
06"
#2140
b10110011 "
b1111 e
b11110000 y
b1 +"
b11111000 -"
16"
#2144
06"
#2145
b1000000000000110010111 0
#2150
b10110100 "
b1111111111111111 U
b0 e
b1111 y
16"
#2154
06"
#2155
b11111111000010000000000110111100 0
#2160
b10110101 "
b0 y
b0 +"
b0 -"
16"
#2164
06"
#2165
b10110111000000011000111000 0
#2170
b10110110 "
b111111111111 e
16"
#2174
06"
#2175
b111000001000000000001000010 0
#2180
b10110111 "
b0 U
b111100000000 e
b111111111111 y
b1 +"
b10010111 -"
16"
#2184
06"
#2185
b1001011000001111010111100 0
#2190
b10111000 "
b0 e
b111100000000 y
b0 +"
b10111100 -"
16"
#2194
06"
#2195
b1001111100101010011100 0
#2200
b10111001 "
b1111111111111111 U
b0 y
b111000 -"
16"
#2204
06"
#2205
b1000011 0
#2210
b10111010 "
b0 U
b110000001101 e
b0 -"
16"
#2214
06"
#2215
b11110000001010000000000011111000 0
#2220
b1100 e
b110000001101 y
b1 +"
b10111100 -"
16"
#2224
06"
#2225
b1101 q
#2230
1Q
b1111111111111111 U
b0 e
b1100 y
b0 +"
b10011100 -"
16"
#2234
06"
#2240
0Q
b0 y
b1000011 -"
16"
#2244
06"
#2250
b11001 "
b0 -"
16"
#2254
06"
#2255
b10111010000000000001000010 0
#2260
b11010 "
16"
#2264
06"
#2265
b11001010000000000001000010 0
#2270
b10111010 "
16"
#2274
06"
#2275
b11110000001010000000000011111000 0
#2280
b10111011 "
1P
1Q
b0 U
16"
#2284
06"
#2285
b1111001010000000000110011011 0
#2290
b10111100 "
0P
0Q
b1111111111111111 U
b1000010 -"
16"
#2294
06"
#2295
b11111111000010000000000110111100 0
#2300
b10111101 "
b0 U
b11110000 e
b0 -"
16"
#2304
06"
#2305
b10110111000000011000111000 0
#2310
b10111110 "
b111111111111 e
b11110000 y
b1 +"
b11111000 -"
16"
#2314
06"
#2315
b111000001000000000001000010 0
#2320
b10110111 "
b111100000000 e
b1111111111111111 y
b10011011 -"
16"
#2324
06"
#2325
b1001011000001111010111100 0
#2330
b10111000 "
b0 e
b1111111100000000 y
b0 +"
b10111100 -"
16"
#2334
06"
#2335
b1001111100101010011100 0
#2340
b10111001 "
b1111111111111111 U
b0 y
b111000 -"
16"
#2344
06"
#2345
b1000011 0
#2350
b10111010 "
b0 U
b110100001110 e
b0 -"
16"
#2354
06"
#2355
b11110000001010000000000011111000 0
#2360
b1101 e
b110100001110 y
b1 +"
b10111100 -"
16"
#2364
06"
#2365
b1110 q
#2370
1Q
b1111111111111111 U
b0 e
b1101 y
b0 +"
b10011100 -"
16"
#2374
06"
#2380
0Q
b0 y
b1000011 -"
16"
#2384
06"
#2390
b11010 "
b0 -"
16"
#2394
06"
#2395
b11001010000000000001000010 0
#2400
b11011 "
16"
#2404
06"
#2405
b11000010000000000001000010 0
#2410
b11001010 "
16"
#2414
06"
#2415
b11111111001010000000000011111000 0
#2420
b11001011 "
1P
1Q
b0 U
16"
#2424
06"
#2425
b1000000000000010100101 0
#2430
b11001100 "
0P
0Q
b1111111111111111 U
b1000010 -"
16"
#2434
06"
#2435
b11111110000010000000000010111100 0
#2440
b11001101 "
b0 U
b11111111 e
b0 -"
16"
#2444
06"
#2445
b11001111000000011000111000 0
#2450
b11001110 "
b1111111111111111 U
b11111110 e
b11111111 y
b1 +"
b11111000 -"
16"
#2454
06"
#2455
b111000001000000000001000010 0
#2460
b11001111 "
b0 U
b0 e
b1111000011111110 y
b10100101 -"
16"
#2464
06"
#2465
b1001011000001111010111100 0
#2470
b11010000 "
b1111000000000000 y
b0 +"
b10111100 -"
16"
#2474
06"
#2475
b1001111100101010011100 0
#2480
b11010001 "
b1111111111111111 U
b0 y
b111000 -"
16"
#2484
06"
#2485
b1000011 0
#2490
b11010010 "
b0 U
b111000001111 e
b0 -"
16"
#2494
06"
#2495
b1001010000000000011111000 0
#2500
b1110 e
b111000001111 y
b1 +"
b10111100 -"
16"
#2504
06"
#2505
b1111 q
#2510
1Q
b1111111111111111 U
b0 e
b1110 y
b0 +"
b10011100 -"
16"
#2514
06"
#2520
0Q
b0 y
b1000011 -"
16"
#2524
06"
#2530
b11011 "
b0 -"
16"
#2534
06"
#2535
b11000010000000000001000010 0
#2540
b11100 "
16"
#2544
06"
#2545
b11010010000000000001000010 0
#2550
b11000010 "
16"
#2554
06"
#2555
b11111111001010000000000011111000 0
#2560
b11000011 "
1P
1Q
b0 U
16"
#2564
06"
#2565
b1001000000000010100101 0
#2570
b11000100 "
0P
0Q
b1111111111111111 U
b1000010 -"
16"
#2574
06"
#2575
b1111111000010000000000010111100 0
#2580
b11000101 "
b0 U
b11111111 e
b0 -"
16"
#2584
06"
#2585
b11000111000000011000111000 0
#2590
b11000110 "
b111001111111 e
b11111111 y
b1 +"
b11111000 -"
16"
#2594
06"
#2595
b111000001000000000001000010 0
#2600
b11000111 "
b111000000000 e
b1111111001111111 y
b10100101 -"
16"
#2604
06"
#2605
b1001011000001111010111100 0
#2610
b11001000 "
b0 e
b1111111000000000 y
b0 +"
b10111100 -"
16"
#2614
06"
#2615
b1001111100101010011100 0
#2620
b11001001 "
b1111111111111111 U
b0 y
b111000 -"
16"
#2624
06"
#2625
b1000011 0
#2630
b11001010 "
b0 U
b111100010000 e
b0 -"
16"
#2634
06"
#2635
b11111111001010000000000011111000 0
#2640
b1111 e
b111100010000 y
b1 +"
b10111100 -"
16"
#2644
06"
#2645
b10000 q
#2650
1Q
b1111111111111111 U
b0 e
b1111 y
b0 +"
b10011100 -"
16"
#2654
06"
#2660
0Q
b0 y
b1000011 -"
16"
#2664
06"
#2670
b11100 "
b0 -"
16"
#2674
06"
#2675
b11010010000000000001000010 0
#2680
b11101 "
16"
#2684
06"
#2685
b11011010000000000001000010 0
#2690
b11010010 "
16"
#2694
06"
#2695
b1001010000000000011111000 0
#2700
b11010011 "
1P
1Q
b0 U
16"
#2704
06"
#2705
b1001101000000000010111100 0
#2710
b11010100 "
0P
0Q
b1111111111111111 U
b1000010 -"
16"
#2714
06"
#2715
b11111111000010000000000010111100 0
#2720
b11010101 "
b0 U
b1 e
b0 -"
16"
#2724
06"
#2725
b11010111000000011000111000 0
#2730
b11010110 "
b111111111111 e
b1 y
b1 +"
b11111000 -"
16"
#2734
06"
#2735
b111000001000000000001000010 0
#2740
b11010111 "
b111100000000 e
b111111111111111 y
b10111100 -"
16"
#2744
06"
#2745
b1001011000001111010111100 0
#2750
b11011000 "
b0 e
b111111100000000 y
b0 +"
16"
#2754
06"
#2755
b1001111100101010011100 0
#2760
b11011001 "
b1111111111111111 U
b0 y
b111000 -"
16"
#2764
06"
#2765
b1000011 0
#2770
b11011010 "
b0 U
b10001 e
b0 -"
16"
#2774
06"
#2775
b1010000000000011111000 0
#2780
b10000 e
b1000000010001 y
b1 +"
b10111100 -"
16"
#2784
06"
#2785
b10001 q
#2790
1Q
b1111111111111111 U
b0 e
b10000 y
b0 +"
b10011100 -"
16"
#2794
06"
#2800
0Q
b0 y
b1000011 -"
16"
#2804
06"
#2810
b11101 "
b0 -"
16"
#2814
06"
#2815
b11011010000000000001000010 0
#2820
b11110 "
16"
#2824
06"
#2825
b11100010000000000001000010 0
#2830
b11011010 "
16"
#2834
06"
#2835
b1010000000000011111000 0
#2840
b11011011 "
1P
1Q
b0 U
16"
#2844
06"
#2845
b1101000000000010111100 0
#2850
b11011100 "
0P
0Q
b1111111111111111 U
b1000010 -"
16"
#2854
06"
#2855
b11111111000010000000000010111100 0
#2860
b11011101 "
b0 U
b0 -"
16"
